{
    "count": 631321,
    "links":
    {
      "prev": null,
      "next": "/eco/measurements?page=2&pagesize=3"
    },
    "maxPageSize": 10000,
    "defaultPageSize": 1000,
    "minPageSize": 1,
    "result": [
        {
            "calculatedunit": "PROCENT",
            "calculatedvalue": 1,
            "changedate": "2017-10-20T00:41:38",
            "classifiedvalue": "",
            "collectiondate": "2014-09-09T00:00:00",
            "compartment": "OW",
            "locationgeography": "POINT (5.01948433385143 52.5829301079993)",
            "measurementgeography": "POINT (5.01948433385143 52.5829301079993)",
            "limitsymbol": "0",
            "measuredunit": "PROCENT",
            "measuredvalue": 1,
            "measurementattributes": [],
            "measurementdate": "2014-09-09T00:00:00",
            "measurementobject": "570201",
            "measurementpackage": null,
            "measurementpurpose": "MT",
            "methods": [],
            "note": null,
            "organisation": "HHN",
            "parameter": "Draadalgen",
            "parametergroup": null,
            "parametertype": "BiologicalGroup",
            "projects": [],
            "quantity": "BEDKG",
            "status": "60",
            "taxontype": null
        },
        {
            "calculatedunit": "PROCENT",
            "calculatedvalue": 0,
            "changedate": "2017-10-20T00:41:38",
            "classifiedvalue": "",
            "collectiondate": "2014-09-09T00:00:00",
            "compartment": "OW",
            "locationgeography": "POINT (5.0317405324146 52.5436033920471)",
            "measurementgeography": "POINT (5.0317405324146 52.5436033920471)",
            "limitsymbol": "0",
            "measuredunit": "PROCENT",
            "measuredvalue": 0,
            "measurementattributes": [],
            "measurementdate": "2014-09-09T00:00:00",
            "measurementobject": "5N9711",
            "measurementpackage": null,
            "measurementpurpose": "MT",
            "methods": [],
            "note": null,
            "organisation": "HHN",
            "parameter": "Draadalgen",
            "parametergroup": null,
            "parametertype": "BiologicalGroup",
            "projects": [],
            "quantity": "BEDKG",
            "status": "60",
            "taxontype": null
        },
        {
            "calculatedunit": "PROCENT",
            "calculatedvalue": 0.1,
            "changedate": "2017-10-20T00:41:38",
            "classifiedvalue": "",
            "collectiondate": "2014-06-10T00:00:00",
            "compartment": "OW",
            "locationgeography": "POINT (5.06948489764371 52.5056906994118)",
            "measurementgeography": "POINT (5.06948489764371 52.5056906994118)",
            "limitsymbol": "0",
            "measuredunit": "PROCENT",
            "measuredvalue": 0.1,
            "measurementattributes": [],
            "measurementdate": "2014-06-10T00:00:00",
            "measurementobject": "513007",
            "measurementpackage": null,
            "measurementpurpose": "MT",
            "methods": [],
            "note": null,
            "organisation": "HHN",
            "parameter": "Draadalgen",
            "parametergroup": null,
            "parametertype": "BiologicalGroup",
            "projects": [],
            "quantity": "BEDKG",
            "status": "60",
            "taxontype": null
        }
    ]
}
