{
    "count": 46,
    "links":
    {
      "prev": null,
      "next": "/eco/methods?page=2&pagesize=3"
    },
    "maxPageSize": 10000,
    "defaultPageSize": 1000,
    "minPageSize": 1,
    "result": [
        {
            "code": "FYTPT_A054",
            "name": "Fytoplankton A054",
            "organisation": "RWS",
            "literature": null,
            "methodtype": "AM",
            "methodtypename": "Analyse methode"
        },
        {
            "code": "FYTPT_S054",
            "name": "Fytoplankton S052",
            "organisation": "RWS",
            "literature": null,
            "methodtype": "MM",
            "methodtypename": "Monstermethode"
        },
        {
            "code": "MCFT-0823",
            "name": "Macrofyten",
            "organisation": "ECS.OW",
            "literature": null,
            "methodtype": "AM",
            "methodtypename": "Analyse methode"
        }
    ]
}
