{
  "count": 13,
  "links":
  {
    "prev": null,
    "next": "/eco/taxontypes?page=2&pagesize=3"
  },
  "maxPageSize": 10000,
  "defaultPageSize": 1000,
  "minPageSize": 1,
  "result": [
      {
          "code": "ZOOPT",
          "name": "Zooplankton"
      },
      {
          "code": "DIATM",
          "name": "Diatoms"
      },
      {
          "code": "FYTPT",
          "name": "Phytoplankton"
      }
  ]
}
